[
    { "id": 200, "provider": "Bank of America", "apr": 2.3, "maxTenor": 12, "minIncome": 2000, "maxAmount": 60000, "loanToIncomeRatio": 18, "imageUrl": "https://drive.google.com/file/d/1tzb-7DwoLxlzN_yA05RJGbJtes_gfWi8/view?usp=sharing" },
    { "id": 201, "provider": "Bank of America", "apr": 3, "maxTenor": 36, "minIncome": 2000, "maxAmount": 60000, "loanToIncomeRatio": 18, "imageUrl": "https://drive.google.com/file/d/1tzb-7DwoLxlzN_yA05RJGbJtes_gfWi8/view?usp=sharing" },
    { "id": 202, "provider": "Citi", "apr": 2.1, "maxTenor": 36, "minIncome": 3000, "maxAmount": 30000, "loanToIncomeRatio": 18, "imageUrl": "https://drive.google.com/file/d/1IPOMxQ2RK69In7G59bYEhBDss4VV1J2X/view?usp=sharing" },
    { "id": 203, "provider": "Citi", "apr": 3.2, "maxTenor": 36, "minIncome": 1500, "maxAmount": 30000, "loanToIncomeRatio": 18, "imageUrl": "https://drive.google.com/file/d/1IPOMxQ2RK69In7G59bYEhBDss4VV1J2X/view?usp=sharing" },
    { "id": 204, "provider": "Citi", "apr": 8.5, "maxTenor": 60, "minIncome": 800, "maxAmount": 60000, "loanToIncomeRatio": 18, "imageUrl": "https://drive.google.com/file/d/1IPOMxQ2RK69In7G59bYEhBDss4VV1J2X/view?usp=sharing" },
    { "id": 205, "provider": "PNC", "apr": 6.2, "maxTenor": 36, "minIncome": 1000, "maxAmount": 100000, "loanToIncomeRatio": 30, "imageUrl": "https://drive.google.com/file/d/1wTHhgx7ZL9YsBuZz2KwnupyaMdZCyPKx/view?usp=sharing" },
    { "id": 206, "provider": "SoFi", "apr": 5.7, "maxTenor": 36, "minIncome": 800, "maxAmount": 100000, "loanToIncomeRatio": 30, "imageUrl": "https://drive.google.com/file/d/1Nf9Nz-5Z21Z7UIYMbrWa_K4qGDohjhdr/view?usp=sharing" },
    { "id": 207, "provider": "SoFi", "apr": 6.8, "maxTenor": 60, "minIncome": 800, "maxAmount": 100000, "loanToIncomeRatio": 30, "imageUrl": "https://drive.google.com/file/d/1Nf9Nz-5Z21Z7UIYMbrWa_K4qGDohjhdr/view?usp=sharing" },
    { "id": 208, "provider": "Wells Fago", "apr": 6.2, "maxTenor": 12, "minIncome": 800, "maxAmount": 100000, "loanToIncomeRatio": 18, "imageUrl": "https://drive.google.com/file/d/1KyMAq4SXLbVeljdBLKzacd4jVMdPyU7X/view?usp=sharing" },
    { "id": 209, "provider": "Wells Fago", "apr": 6.5, "maxTenor": 36, "minIncome": 800, "maxAmount": 100000, "loanToIncomeRatio": 18, "imageUrl": "https://drive.google.com/file/d/1KyMAq4SXLbVeljdBLKzacd4jVMdPyU7X/view?usp=sharing" },
    { "id": 210, "provider": "Wells Fago", "apr": 7.2, "maxTenor": 60, "minIncome": 800, "maxAmount": 100000, "loanToIncomeRatio": 18, "imageUrl": "https://drive.google.com/file/d/1KyMAq4SXLbVeljdBLKzacd4jVMdPyU7X/view?usp=sharing" },
    { "id": 211, "provider": "Wells Fago", "apr": 7.8, "maxTenor": 72, "minIncome": 800, "maxAmount": 100000, "loanToIncomeRatio": 18, "imageUrl": "https://drive.google.com/file/d/1KyMAq4SXLbVeljdBLKzacd4jVMdPyU7X/view?usp=sharing" }
]