[
  {
    "id": "2a5ace95-9e87-4616-a714-5d44704865ce",
    "data": [
      {
        "text": "my id is ",
        "userDefined": false
      },
      {
        "text": "A155798513",
        "meta": "@IDNum",
        "alias": "id-num",
        "userDefined": false
      },
      {
        "text": ", monthly income is ",
        "userDefined": false
      },
      {
        "text": "4500",
        "meta": "@sys.number",
        "alias": "monthly-income",
        "userDefined": false
      },
      {
        "text": " ",
        "userDefined": false
      },
      {
        "text": "USD",
        "meta": "@sys.currency-name",
        "alias": "income-currency",
        "userDefined": false
      },
      {
        "text": ", and my name is ",
        "userDefined": false
      },
      {
        "text": "Jan",
        "meta": "@sys.given-name",
        "alias": "given-name",
        "userDefined": false
      },
      {
        "text": ", ",
        "userDefined": false
      },
      {
        "text": "CHAN",
        "meta": "@sys.last-name",
        "alias": "last-name",
        "userDefined": false
      }
    ],
    "isTemplate": false,
    "count": 0,
    "lang": "en",
    "updated": 0
  },
  {
    "id": "8879e781-eadc-47be-a50f-7fe3f61df586",
    "data": [
      {
        "text": "my id document number is ",
        "userDefined": false
      },
      {
        "text": "A155798513",
        "meta": "@IDNum",
        "alias": "id-num",
        "userDefined": false
      },
      {
        "text": ", my monthly income is ",
        "userDefined": false
      },
      {
        "text": "4500",
        "meta": "@sys.number",
        "alias": "monthly-income",
        "userDefined": true
      },
      {
        "text": " ",
        "userDefined": false
      },
      {
        "text": "USD,",
        "meta": "@sys.currency-name",
        "alias": "income-currency",
        "userDefined": false
      },
      {
        "text": " and my name is ",
        "userDefined": false
      },
      {
        "text": "Jan",
        "meta": "@sys.given-name",
        "alias": "given-name",
        "userDefined": false
      },
      {
        "text": ", ",
        "userDefined": false
      },
      {
        "text": "CHAN",
        "meta": "@sys.last-name",
        "alias": "last-name",
        "userDefined": false
      }
    ],
    "isTemplate": false,
    "count": 0,
    "lang": "en",
    "updated": 0
  },
  {
    "id": "be140dd9-58ca-4850-adae-bafe4f2ee957",
    "data": [
      {
        "text": "This is ",
        "userDefined": false
      },
      {
        "text": "Jan",
        "meta": "@sys.given-name",
        "alias": "given-name",
        "userDefined": false
      },
      {
        "text": ", ",
        "userDefined": false
      },
      {
        "text": "CHAN",
        "meta": "@sys.last-name",
        "alias": "last-name",
        "userDefined": false
      },
      {
        "text": ", my monthly income is ",
        "userDefined": false
      },
      {
        "text": "USD",
        "meta": "@sys.currency-name",
        "alias": "income-currency",
        "userDefined": false
      },
      {
        "text": " $",
        "userDefined": false
      },
      {
        "text": "4500",
        "meta": "@sys.number",
        "alias": "monthly-income",
        "userDefined": false
      },
      {
        "text": ", and my id document number is ",
        "userDefined": false
      },
      {
        "text": "A155798513",
        "meta": "@IDNum",
        "alias": "id-num",
        "userDefined": true
      }
    ],
    "isTemplate": false,
    "count": 0,
    "lang": "en",
    "updated": 0
  },
  {
    "id": "2fd88f07-6f62-430f-8218-19368ce3ad3f",
    "data": [
      {
        "text": "3500",
        "meta": "@sys.number",
        "alias": "monthly-income",
        "userDefined": true
      },
      {
        "text": " ",
        "userDefined": false
      },
      {
        "text": "USD",
        "meta": "@sys.currency-name",
        "alias": "income-currency",
        "userDefined": true
      },
      {
        "text": "  / ",
        "userDefined": false
      },
      {
        "text": "A1343321",
        "meta": "@IDNum",
        "alias": "id-num",
        "userDefined": true
      },
      {
        "text": " / ",
        "userDefined": false
      },
      {
        "text": "Harry",
        "meta": "@sys.given-name",
        "alias": "given-name",
        "userDefined": false
      },
      {
        "text": " ",
        "userDefined": false
      },
      {
        "text": "Potter",
        "meta": "@sys.last-name",
        "alias": "last-name",
        "userDefined": true
      }
    ],
    "isTemplate": false,
    "count": 0,
    "lang": "en",
    "updated": 0
  },
  {
    "id": "fbf4df44-a3f1-46f7-a905-0ab3642e9809",
    "data": [
      {
        "text": "A1345211",
        "meta": "@IDNum",
        "alias": "id-num",
        "userDefined": true
      },
      {
        "text": " / ",
        "userDefined": false
      },
      {
        "text": "Harry",
        "meta": "@sys.given-name",
        "alias": "given-name",
        "userDefined": false
      },
      {
        "text": " ",
        "userDefined": false
      },
      {
        "text": "Potter",
        "meta": "@sys.last-name",
        "alias": "last-name",
        "userDefined": true
      },
      {
        "text": " / ",
        "userDefined": false
      },
      {
        "text": "USD",
        "meta": "@sys.currency-name",
        "alias": "income-currency",
        "userDefined": true
      },
      {
        "text": " ",
        "userDefined": false
      },
      {
        "text": "3500",
        "meta": "@sys.number",
        "alias": "monthly-income",
        "userDefined": true
      }
    ],
    "isTemplate": false,
    "count": 0,
    "lang": "en",
    "updated": 0
  },
  {
    "id": "34f332ee-2ff0-46d4-ad14-6142e68a9255",
    "data": [
      {
        "text": "Harry",
        "meta": "@sys.given-name",
        "alias": "given-name",
        "userDefined": true
      },
      {
        "text": " ",
        "userDefined": false
      },
      {
        "text": "Potter",
        "meta": "@sys.last-name",
        "alias": "last-name",
        "userDefined": true
      },
      {
        "text": " / ",
        "userDefined": false
      },
      {
        "text": "2500",
        "meta": "@sys.number",
        "alias": "monthly-income",
        "userDefined": true
      },
      {
        "text": " ",
        "userDefined": false
      },
      {
        "text": "USD",
        "meta": "@sys.currency-name",
        "alias": "income-currency",
        "userDefined": true
      },
      {
        "text": " / ",
        "userDefined": false
      },
      {
        "text": "A1345121",
        "meta": "@IDNum",
        "alias": "id-num",
        "userDefined": true
      }
    ],
    "isTemplate": false,
    "count": 0,
    "lang": "en",
    "updated": 0
  },
  {
    "id": "626bcb99-fe49-4a67-b251-40fdd8e850a0",
    "data": [
      {
        "text": "This is ",
        "userDefined": false
      },
      {
        "text": "Jan",
        "meta": "@sys.given-name",
        "alias": "given-name",
        "userDefined": true
      },
      {
        "text": ", ",
        "userDefined": false
      },
      {
        "text": "CHAN,",
        "meta": "@sys.last-name",
        "alias": "last-name",
        "userDefined": true
      },
      {
        "text": " my id document number is ",
        "userDefined": false
      },
      {
        "text": "A155798513,",
        "meta": "@IDNum",
        "alias": "id-num",
        "userDefined": true
      },
      {
        "text": " and my monthly income is ",
        "userDefined": false
      },
      {
        "text": "USD",
        "meta": "@sys.currency-name",
        "alias": "income-currency",
        "userDefined": true
      },
      {
        "text": " $",
        "userDefined": false
      },
      {
        "text": "4500",
        "meta": "@sys.number",
        "alias": "monthly-income",
        "userDefined": true
      }
    ],
    "isTemplate": false,
    "count": 0,
    "lang": "en",
    "updated": 0
  },
  {
    "id": "23ed8a8a-e49e-4f00-a14d-db8066dc7085",
    "data": [
      {
        "text": "I am ",
        "userDefined": false
      },
      {
        "text": "Jan",
        "meta": "@sys.given-name",
        "alias": "given-name",
        "userDefined": true
      },
      {
        "text": " ",
        "userDefined": false
      },
      {
        "text": "Chan",
        "meta": "@sys.last-name",
        "alias": "last-name",
        "userDefined": true
      },
      {
        "text": " and my ID is ",
        "userDefined": false
      },
      {
        "text": "A1234567,",
        "meta": "@IDNum",
        "alias": "id-num",
        "userDefined": true
      },
      {
        "text": " I am making ",
        "userDefined": false
      },
      {
        "text": "USD",
        "meta": "@sys.currency-name",
        "alias": "income-currency",
        "userDefined": true
      },
      {
        "text": " ",
        "userDefined": false
      },
      {
        "text": "10000",
        "meta": "@sys.number",
        "alias": "monthly-income",
        "userDefined": true
      },
      {
        "text": " per month",
        "userDefined": false
      }
    ],
    "isTemplate": false,
    "count": 0,
    "lang": "en",
    "updated": 0
  }
]