{
  "id": "3217b1e8-8116-48a9-a453-e680c18af607",
  "parentId": "9adb994b-76d5-42bf-81ad-1536b29938f6",
  "rootParentId": "9adb994b-76d5-42bf-81ad-1536b29938f6",
  "name": "Common1 - PII - fallback",
  "contexts": [
    "loantype-set",
    "Common1-PII-followup"
  ],
  "responses": [
    {
      "resetContexts": false,
      "action": "Common1-PII.Common1-PII-fallback",
      "affectedContexts": [],
      "parameters": [],
      "messages": [
        {
          "type": "0",
          "title": "",
          "textToSpeech": "",
          "lang": "en",
          "speech": [
            "I don\u0027t understand, can you tell me your contacts? (e.g. my number is 92154321, and my address is 555 W Adams St, Chicago, IL 60661, USA, the email address is handsome@gmail.com)"
          ],
          "condition": ""
        }
      ],
      "speech": []
    }
  ],
  "priority": 500000,
  "webhookUsed": false,
  "webhookForSlotFilling": false,
  "fallbackIntent": true,
  "events": [],
  "conditionalResponses": [],
  "condition": "",
  "conditionalFollowupEvents": []
}