[
  {
    "id": "f4916da6-0502-4468-a70f-35aadf8e13f6",
    "data": [
      {
        "text": "Silver",
        "meta": "@CardLevel",
        "alias": "card-level",
        "userDefined": true
      },
      {
        "text": " ",
        "userDefined": false
      },
      {
        "text": "American Express",
        "meta": "@CardType",
        "alias": "card-type",
        "userDefined": false
      }
    ],
    "isTemplate": false,
    "count": 0,
    "lang": "en",
    "updated": 0
  },
  {
    "id": "98c1c660-4bdd-4b76-a0b1-bc3ee562e407",
    "data": [
      {
        "text": "American Express",
        "meta": "@CardType",
        "alias": "card-type",
        "userDefined": true
      },
      {
        "text": " ",
        "userDefined": false
      },
      {
        "text": "Black",
        "meta": "@CardLevel",
        "alias": "card-level",
        "userDefined": true
      }
    ],
    "isTemplate": false,
    "count": 0,
    "lang": "en",
    "updated": 0
  },
  {
    "id": "4eaed7d4-e32d-41bd-956f-7dd340a0cec9",
    "data": [
      {
        "text": "Visa",
        "meta": "@CardType",
        "alias": "card-type",
        "userDefined": false
      },
      {
        "text": " ",
        "userDefined": false
      },
      {
        "text": "Signature",
        "meta": "@CardLevel",
        "alias": "card-level",
        "userDefined": false
      }
    ],
    "isTemplate": false,
    "count": 0,
    "lang": "en",
    "updated": 0
  }
]