{
  "id": "0d68d409-8063-4841-a289-15735baa5f48",
  "parentId": "bd34b35d-aa25-4d56-b9a6-a6e09db77907",
  "rootParentId": "bd34b35d-aa25-4d56-b9a6-a6e09db77907",
  "name": "Credit Card - fallback",
  "contexts": [
    "loantype-set",
    "CreditCard-followup"
  ],
  "responses": [
    {
      "resetContexts": false,
      "action": "CreditCard.CreditCard-fallback",
      "affectedContexts": [],
      "parameters": [],
      "messages": [
        {
          "type": "0",
          "title": "",
          "textToSpeech": "",
          "lang": "en",
          "speech": [
            "Sorry, I don\u0027t understand what card do you want to apply? (e.g. VISA Platinum, American Express Black)"
          ],
          "condition": ""
        }
      ],
      "speech": []
    }
  ],
  "priority": 500000,
  "webhookUsed": false,
  "webhookForSlotFilling": false,
  "fallbackIntent": true,
  "events": [],
  "conditionalResponses": [],
  "condition": "",
  "conditionalFollowupEvents": []
}