{
  "id": "58ac352d-0e51-426d-be96-2b9e3a209b01",
  "parentId": "9b9d28f9-fba5-4d63-9638-4d036b124d5a",
  "rootParentId": "173d1e0b-7f18-429a-8819-4359bc66476e",
  "name": "PLoan Detail - fallback",
  "contexts": [
    "PLoanDetail-followup",
    "loa"
  ],
  "responses": [
    {
      "resetContexts": false,
      "action": "PLoan.PLoan-custom.PLoanDetail-fallback",
      "affectedContexts": [
        {
          "name": "loa",
          "lifespan": 5
        }
      ],
      "parameters": [],
      "messages": [
        {
          "type": "0",
          "title": "",
          "textToSpeech": "",
          "lang": "en",
          "speech": [
            "I don\u0027t understand. Can I have your name, ID, and monthly income? (i.e. My name is David Beckham, my monthly income is USD 6800, and my ID Number is A1231241)"
          ],
          "condition": ""
        }
      ],
      "speech": []
    }
  ],
  "priority": 500000,
  "webhookUsed": false,
  "webhookForSlotFilling": false,
  "fallbackIntent": true,
  "events": [],
  "conditionalResponses": [],
  "condition": "",
  "conditionalFollowupEvents": []
}