[
  {
    "id": "4a05d705-87f2-4c4c-a9a7-480944305cc5",
    "data": [
      {
        "text": "offer 2",
        "meta": "@OfferType",
        "alias": "selected-offer",
        "userDefined": false
      }
    ],
    "isTemplate": false,
    "count": 0,
    "lang": "en",
    "updated": 0
  },
  {
    "id": "aea859a1-e6cc-460f-8eb9-b2e78001031c",
    "data": [
      {
        "text": "give me ",
        "userDefined": false
      },
      {
        "text": "offer 1",
        "meta": "@OfferType",
        "alias": "selected-offer",
        "userDefined": false
      }
    ],
    "isTemplate": false,
    "count": 0,
    "lang": "en",
    "updated": 0
  }
]